{
    "web": {
      "client_id": "455143386899-eatsv6iqm9ut9ii3099gkm1259nfisqk.apps.googleusercontent.com",
      "project_id": "nomadic-bedrock-325313",
      "auth_uri": "https://accounts.google.com/o/oauth2/auth",
      "token_uri": "https://oauth2.googleapis.com/token",
      "auth_provider_x509_cert_url": "https://www.googleapis.com/oauth2/v1/certs",
      "client_secret": "0lGGcxm8zUUIVG6Am81l9lbs",
      "redirect_uris": [
        "http://localhost:3000",
        "https://accounts.google.com/signin/oauth/"
      ],
      "javascript_origins": [
        "http://localhost:3000",
        "https://developers.google.com"
      ]
    }
  }


  