email 
me.abvi0914@gmail.com
khejindrakabirath622@gmail.com
ryamghimire@gmail.com
prabhat2056@gmail.com
xiaosangaming88@gmail.com
sumanbareli78@gmail.com
pokharelsols98765@gmail.com
atothen42@gmail.com
kishanbhagat30@gmail.com
sahranjit54@gmail.com
richuu45@gmail.com
diptiniraula16@gmail.com
phuyalaakriti4@gmail.com
rayanbista123@gmail.com
beingesha03@gmail.com
pragyasharma844@gmail.com
sagarmgr309@gmail.com
imanilgupta9211@gmail.com
samikshyakalyan@gmail.com
kishansah271@icloud.com
shirodeepdahal0987@gmail.com
abhishek103638@gmail.com
terrifiedparanoid@gmail.com
ishika9880@gmail.com
riya9819016996@gmail.com
barailyrajesh507@gmail.com
abhinashxchaudhary@gmail.com





 


name, phonenumber
Abhishek Chaudhary 9829344969
khejindra kabirath 9807017370
Ram Ghimire        9862241611
Prabhat Bhattarai	9824976005
Kamal karki 		9819390614
Abhinash Chaudhary 	9810473054
suman Bishwakarma       9814303398
suyesh Pokhrel          9824390505
kishan Bhagat 		9814343025
Ranjit Sah		9819714333
Richa chaudhary         9819790816
Dipti Niraula            9805360819
Aakriti Phuyal		9800948316
Rabin Bista		9746855810
Surakshya Bhandari	9819095999
Pragya Sharma		9812313727
Bibek kumar Magar Khapangi   9864465060
Kishan Kumar Sah        9862970977
Ashmin Niraula          98104811063                   
Anil Gupta              9847200741
Rajesh Bishwakarma      9814335603
Samiksha Kalyan Tharu    9803804260
pragya pathak            9812396009
shirodeep dahal          9817397683
abhishek dahal           9804050695
sakshyam adhikari         9863453805
Bibek Katwal              9811063366
Riya Shah                9804514323




//
2059






//day 2
//if-else
//function
// string methode
// array methode
// export and import


DF88_2.44
2y9Zkz6y

Hall 2.4G
connect2me





Seminar
Seo




email

kripanandsah2@gmail.com


name phoneNumber
kripanand sah(kp) no. 9810586436


