{
	"id": "b20736fe-f213-4831-b765-33c4f306c612",
	"name": "ars-api-env",
	"values": [
		{
			"key": "URL",
			"value": "http://localhost:3100/api/v1",
			"enabled": true
		}
	],
	"_postman_variable_scope": "environment",
	"_postman_exported_at": "2021-06-27T17:10:06.880Z",
	"_postman_exported_using": "Postman/8.7.0"
}