<svg width="62" height="63" viewBox="0 0 62 63" fill="none" xmlns="http://www.w3.org/2000/svg">
<path d="M38.2001 45.2L12.3001 45.3C10.1001 45.3 8.40009 44.8 7.30009 43.8C6.20009 42.8 5.6001 41.5 5.6001 39.9C5.6001 38.2 6.10009 36.9 7.20009 35.9C8.30009 34.9 10.0001 34.4 12.2001 34.4L38.7001 34.3C41.7001 34.3 44.2001 33.9 46.3001 33.3C48.3001 32.6 49.9001 31.4 51.0001 29.7C52.1001 28 52.7001 25.6 52.7001 22.5C52.7001 18.2 51.5001 15.2 49.3001 13.5C47.0001 11.7 43.6001 10.9 39.0001 10.9L10.2001 11C8.00009 11 6.30009 10.5 5.20009 9.5C4.10009 8.5 3.6001 7.2 3.6001 5.6C3.6001 4 4.10009 2.6 5.20009 1.6C6.30009 0.599998 8.00009 0.0999985 10.2001 0.0999985L38.2001 0C42.4001 0 45.9001 0.400005 48.8001 1.2C51.6001 2 54.1001 3.6 56.2001 5.8C58.0001 7.8 59.4001 10 60.2001 12.6C61.0001 15.2 61.5001 18.2 61.5001 21.7C61.5001 25.8 61.1001 29.4 60.2001 32.4C59.3001 35.4 57.9001 37.8 56.1001 39.7C54.2001 41.6 51.8001 43 48.9001 43.9C45.7001 44.7 42.2001 45.2 38.2001 45.2Z" fill="white"/>
<path d="M23.3 17.3L49.2 17.2C51.4 17.2 53.1 17.7 54.2 18.7C55.3 19.7 55.9 21 55.9 22.6C55.9 24.3 55.4 25.6 54.3 26.6C53.2 27.6 51.5 28.1 49.3 28.1L22.8 28.2C19.8 28.2 17.3 28.6 15.2 29.2C13.2 29.9 11.6 31.1 10.5 32.8C9.4 34.5 8.8 36.9 8.8 40C8.8 44.3 10 47.3 12.2 49C14.5 50.8 17.9 51.6 22.5 51.6L51.3 51.5C53.5 51.5 55.2 52 56.3 53C57.4 54 57.9 55.3 57.9 56.9C57.9 58.5 57.4 59.9 56.3 60.9C55.2 61.9 53.5 62.4 51.3 62.4L23.3 62.5C19.1 62.5 15.6 62.1 12.7 61.3C9.8 60.5 7.4 58.9 5.3 56.7C3.5 54.7 2.1 52.5 1.3 49.9C0.500003 47.3 0 44.3 0 40.8C0 36.7 0.400003 33.1 1.3 30.1C2.2 27.1 3.60001 24.7 5.40001 22.8C7.30001 20.9 9.70001 19.5 12.6 18.6C15.8 17.7 19.3 17.3 23.3 17.3Z" fill="white"/>
</svg>
