<svg width="108" height="108" viewBox="0 0 108 108" fill="none" xmlns="http://www.w3.org/2000/svg">
<circle cx="53.9999" cy="53.9999" r="37.8989" fill="url(#paint0_linear_480_1194)"/>
<circle cx="54.0001" cy="54.0001" r="46.1378" fill="url(#paint1_linear_480_1194)" fill-opacity="0.1"/>
<circle cx="54.0001" cy="54.0001" r="46.1378" fill="url(#paint2_linear_480_1194)" fill-opacity="0.1"/>
<circle cx="54" cy="54" r="54" fill="url(#paint3_linear_480_1194)" fill-opacity="0.1"/>
<path d="M73.7733 54.8237L45.3492 71.2344L45.3492 38.413L73.7733 54.8237Z" fill="white"/>
<defs>
<linearGradient id="paint0_linear_480_1194" x1="16.1011" y1="41.9412" x2="106.107" y2="52.9886" gradientUnits="userSpaceOnUse">
<stop stop-color="#A01319"/>
<stop offset="0.166135" stop-color="#AD141B"/>
<stop offset="1" stop-color="#EC1C24"/>
</linearGradient>
<linearGradient id="paint1_linear_480_1194" x1="7.8623" y1="39.3199" x2="117.435" y2="52.7689" gradientUnits="userSpaceOnUse">
<stop stop-color="#A01319"/>
<stop offset="0.166135" stop-color="#AD141B"/>
<stop offset="1" stop-color="#EC1C24"/>
</linearGradient>
<linearGradient id="paint2_linear_480_1194" x1="7.8623" y1="39.3199" x2="117.435" y2="52.7689" gradientUnits="userSpaceOnUse">
<stop stop-color="#A01319"/>
<stop offset="0.166135" stop-color="#AD141B"/>
<stop offset="1" stop-color="#EC1C24"/>
</linearGradient>
<linearGradient id="paint3_linear_480_1194" x1="-1.11927e-06" y1="36.8182" x2="128.244" y2="52.559" gradientUnits="userSpaceOnUse">
<stop stop-color="#A01319"/>
<stop offset="0.166135" stop-color="#AD141B"/>
<stop offset="1" stop-color="#EC1C24"/>
</linearGradient>
</defs>
</svg>
