[

    {"nitan":"nitan","age":26},
    {"nitan":"billgates","age":27},
    {"nitan":"jackma","age":28},
    {"nitan":"binod chaudhari","age":29},
    {"nitan":"ambani","age":30},
    {"nitan":"serpa","age":31}
]