<svg width="202" height="98" viewBox="0 0 202 98" fill="none" xmlns="http://www.w3.org/2000/svg">
<path d="M159.064 86.7908L154.818 96.6505H153.262L154.655 93.4268L151.965 86.7908H153.603L154.764 89.9732L155.432 91.884L156.156 89.9994L157.494 86.7908H159.064Z" fill="white"/>
<path d="M51.427 56.8166H32.2744V44.3473L41.8497 35.6815L51.427 44.3473V56.8166Z" fill="white"/>
<path d="M105.539 92.3065C105.849 92.3065 106.133 92.2541 106.392 92.1492C106.653 92.0444 106.877 91.8961 107.069 91.7066C107.259 91.515 107.406 91.2911 107.511 91.031C107.616 90.7718 107.669 90.4834 107.669 90.1638C107.669 89.5275 107.475 89.0102 107.088 88.615C106.702 88.2177 106.184 88.02 105.539 88.02C105.211 88.02 104.917 88.0745 104.658 88.1834C104.398 88.2923 104.177 88.4466 103.995 88.6422C103.814 88.8378 103.674 89.0647 103.573 89.3248C103.472 89.583 103.424 89.8633 103.424 90.1638C103.424 90.4643 103.475 90.7446 103.579 91.0037C103.684 91.2639 103.829 91.4908 104.016 91.6864C104.204 91.882 104.426 92.0353 104.686 92.1432C104.944 92.2521 105.229 92.3065 105.539 92.3065ZM101.893 96.6505V86.7909H103.218L103.3 87.8829C103.563 87.4735 103.91 87.167 104.342 86.9613C104.776 86.7576 105.219 86.6547 105.675 86.6547C106.175 86.6547 106.635 86.7435 107.054 86.9219C107.471 87.0984 107.831 87.3424 108.133 87.652C108.432 87.9616 108.663 88.3316 108.827 88.7582C108.991 89.1867 109.073 89.6546 109.073 90.1648C109.073 90.675 108.994 91.1439 108.835 91.5715C108.676 92 108.449 92.3711 108.159 92.6847C107.867 92.9993 107.509 93.2423 107.087 93.4147C106.663 93.5882 106.192 93.6759 105.675 93.6759C105.465 93.6759 105.248 93.6547 105.025 93.6134C104.802 93.571 104.583 93.5085 104.369 93.4228C104.156 93.3371 103.956 93.2201 103.768 93.0729C103.581 92.9277 103.426 92.7522 103.299 92.5415V96.6525H101.893V96.6505Z" fill="white"/>
<path d="M111.888 86.7908L111.985 87.6792C112.23 87.2507 112.53 86.9703 112.886 86.8393C113.241 86.7072 113.601 86.6416 113.964 86.6416C114.291 86.6416 114.604 86.694 114.9 86.7979C115.196 86.9028 115.439 87.0429 115.63 87.2144L114.989 88.4435C114.815 88.3074 114.639 88.2066 114.463 88.136C114.285 88.0684 114.065 88.0331 113.802 88.0331C113.556 88.0331 113.324 88.0715 113.106 88.1491C112.888 88.2267 112.696 88.3407 112.532 88.4899C112.369 88.6412 112.237 88.8328 112.136 89.0637C112.035 89.2966 111.987 89.5668 111.987 89.8754V93.5226H110.579V86.7898H111.888V86.7908Z" fill="white"/>
<path d="M119.44 87.9647C119.122 87.9647 118.832 88.0262 118.579 88.1441C118.325 88.2611 118.108 88.4214 117.931 88.6272C117.753 88.8308 117.615 89.0648 117.521 89.3269C117.426 89.5911 117.377 89.8715 117.377 90.1719C117.377 90.4704 117.426 90.7528 117.521 91.0159C117.616 91.2781 117.753 91.51 117.931 91.7097C118.108 91.9093 118.325 92.0666 118.579 92.1806C118.833 92.2945 119.122 92.35 119.44 92.35C119.768 92.35 120.057 92.2935 120.314 92.1806C120.568 92.0677 120.785 91.9093 120.963 91.7097C121.139 91.511 121.276 91.2781 121.371 91.0159C121.467 90.7528 121.516 90.4704 121.516 90.1719C121.516 89.8715 121.465 89.5911 121.366 89.3269C121.264 89.0638 121.124 88.8308 120.943 88.6272C120.76 88.4225 120.543 88.2621 120.288 88.1441C120.031 88.0252 119.748 87.9647 119.44 87.9647ZM119.44 86.6538C119.96 86.6538 120.432 86.7456 120.859 86.9271C121.287 87.1086 121.657 87.3576 121.965 87.6702C122.275 87.9858 122.515 88.3569 122.683 88.7834C122.851 89.212 122.936 89.6718 122.936 90.1639C122.936 90.664 122.854 91.1269 122.69 91.5494C122.526 91.9729 122.291 92.3409 121.986 92.6555C121.681 92.9691 121.313 93.2152 120.88 93.3936C120.448 93.5701 119.968 93.6588 119.44 93.6588C118.911 93.6588 118.434 93.5701 118.005 93.3936C117.578 93.2141 117.214 92.9681 116.912 92.6555C116.613 92.3409 116.382 91.9729 116.218 91.5494C116.054 91.1269 115.973 90.664 115.973 90.1639C115.973 89.6718 116.054 89.212 116.218 88.7834C116.382 88.3569 116.616 87.9858 116.921 87.6702C117.226 87.3566 117.592 87.1086 118.021 86.9271C118.446 86.7456 118.921 86.6538 119.44 86.6538Z" fill="white"/>
<path d="M128.069 92.3065C128.378 92.3065 128.663 92.2541 128.921 92.1492C129.182 92.0444 129.407 91.8961 129.599 91.7066C129.789 91.515 129.936 91.2911 130.041 91.031C130.146 90.7718 130.199 90.4834 130.199 90.1638C130.199 89.5275 130.005 89.0102 129.619 88.615C129.23 88.2177 128.715 88.02 128.069 88.02C127.741 88.02 127.447 88.0745 127.188 88.1834C126.927 88.2923 126.708 88.4466 126.525 88.6422C126.343 88.8378 126.202 89.0647 126.103 89.3248C126.001 89.583 125.952 89.8633 125.952 90.1638C125.952 90.4643 126.005 90.7446 126.11 91.0037C126.214 91.2639 126.359 91.4908 126.545 91.6864C126.734 91.882 126.957 92.0353 127.217 92.1432C127.474 92.2521 127.758 92.3065 128.069 92.3065ZM124.423 96.6505V86.7909H125.747L125.829 87.8829C126.092 87.4735 126.439 87.167 126.873 86.9613C127.305 86.7576 127.749 86.6547 128.205 86.6547C128.705 86.6547 129.165 86.7435 129.582 86.9219C130.001 87.0984 130.362 87.3424 130.661 87.652C130.963 87.9616 131.193 88.3316 131.357 88.7582C131.52 89.1867 131.603 89.6546 131.603 90.1648C131.603 90.675 131.523 91.1439 131.364 91.5715C131.205 92 130.979 92.3711 130.689 92.6847C130.397 92.9993 130.039 93.2423 129.617 93.4147C129.191 93.5882 128.722 93.6759 128.204 93.6759C127.994 93.6759 127.776 93.6547 127.553 93.6134C127.33 93.571 127.112 93.5085 126.898 93.4228C126.684 93.3371 126.486 93.2201 126.298 93.0729C126.111 92.9277 125.953 92.7522 125.827 92.5415V96.6525H124.423V96.6505Z" fill="white"/>
<path d="M134.186 89.4933H138.269C138.222 88.9568 138.023 88.5525 137.668 88.2792C137.312 88.0059 136.848 87.8708 136.274 87.8708C135.755 87.8708 135.305 88.007 134.923 88.2792C134.541 88.5535 134.295 88.9568 134.186 89.4933ZM139.62 90.6821H134.158C134.221 91.2024 134.448 91.6148 134.842 91.9194C135.232 92.2239 135.738 92.3761 136.356 92.3761C136.703 92.3761 137.062 92.3136 137.435 92.1916C137.808 92.0676 138.099 91.8881 138.309 91.6521L139.223 92.5395C139.049 92.7301 138.849 92.8985 138.622 93.0447C138.393 93.1909 138.154 93.3119 137.904 93.4057C137.654 93.5035 137.393 93.572 137.119 93.6184C136.846 93.6628 136.582 93.686 136.328 93.686C135.774 93.686 135.272 93.6013 134.826 93.4329C134.381 93.2645 134.001 93.0265 133.687 92.7159C133.371 92.4064 133.129 92.0313 132.956 91.5906C132.782 91.149 132.696 90.6589 132.696 90.1215C132.696 89.6122 132.782 89.1414 132.956 88.7098C133.129 88.2762 133.369 87.9051 133.679 87.5966C133.989 87.287 134.359 87.046 134.792 86.8716C135.226 86.6991 135.704 86.6134 136.234 86.6134C136.78 86.6134 137.273 86.6961 137.715 86.8665C138.156 87.0339 138.53 87.287 138.834 87.6238C139.141 87.9596 139.363 88.3841 139.503 88.8923C139.645 89.4025 139.685 89.9995 139.62 90.6821Z" fill="white"/>
<path d="M142.364 86.7908L142.462 87.6792C142.706 87.2507 143.007 86.9703 143.362 86.8393C143.717 86.7072 144.077 86.6416 144.439 86.6416C144.768 86.6416 145.08 86.694 145.376 86.7979C145.672 86.9028 145.914 87.0429 146.106 87.2144L145.466 88.4435C145.291 88.3074 145.115 88.2066 144.94 88.136C144.761 88.0684 144.541 88.0331 144.277 88.0331C144.032 88.0331 143.8 88.0715 143.582 88.1491C143.364 88.2267 143.173 88.3407 143.009 88.4899C142.846 88.6412 142.714 88.8328 142.612 89.0637C142.51 89.2966 142.464 89.5668 142.464 89.8754V93.5226H141.056V86.7898H142.364V86.7908Z" fill="white"/>
<path d="M149.233 84.8517V86.8049H151.2V88.0351H149.219V91.2326C149.219 91.5875 149.298 91.8598 149.457 92.0504C149.616 92.241 149.86 92.3357 150.19 92.3357C150.326 92.3357 150.467 92.3146 150.62 92.2742C150.768 92.2319 150.913 92.1764 151.049 92.1028L151.459 93.3048C151.222 93.4046 150.998 93.4802 150.783 93.5296C150.568 93.58 150.342 93.6052 150.107 93.6052C149.37 93.6244 148.802 93.4328 148.406 93.0325C148.009 92.6332 147.813 92.0352 147.813 91.2356V88.0351H146.516V86.8049H147.813V85.003L149.233 84.8517Z" fill="white"/>
<path d="M166.521 87.896C166.229 87.896 165.951 87.9394 165.687 88.0261C165.422 88.1128 165.187 88.2398 164.978 88.4072C164.767 88.5756 164.602 88.7884 164.478 89.0475C164.356 89.3057 164.295 89.6122 164.295 89.9651C164.295 90.3019 164.354 90.5964 164.472 90.8505C164.59 91.1036 164.749 91.3183 164.951 91.4908C165.15 91.6632 165.388 91.7943 165.66 91.884C165.933 91.9748 166.222 92.0222 166.521 92.0222C166.83 92.0222 167.118 91.9708 167.386 91.8719C167.656 91.7721 167.886 91.6319 168.082 91.4494C168.278 91.2689 168.432 91.0511 168.541 90.797C168.65 90.5429 168.704 90.2676 168.704 89.9672C168.704 89.6415 168.644 89.348 168.526 89.0899C168.408 88.8318 168.248 88.6129 168.049 88.4365C167.848 88.26 167.615 88.1259 167.352 88.0372C167.088 87.9424 166.81 87.896 166.521 87.896ZM169.073 86.1495L170.098 86.9411L169.292 87.8829C169.572 88.2106 169.781 88.5353 169.912 88.859C170.045 89.1806 170.11 89.5527 170.11 89.9712C170.11 90.5701 169.963 91.0975 169.667 91.5513C169.373 92.005 168.924 92.3499 168.323 92.5869C168.668 92.7048 168.955 92.849 169.183 93.0174C169.41 93.1868 169.592 93.3703 169.729 93.565C169.865 93.7596 169.962 93.9632 170.016 94.174C170.071 94.3837 170.098 94.5884 170.098 94.7891C170.098 95.2449 169.994 95.6462 169.79 95.9921C169.584 96.3379 169.312 96.6263 168.971 96.8532C168.628 97.0821 168.241 97.2525 167.81 97.3664C167.376 97.4784 166.938 97.5368 166.492 97.5368C165.946 97.5368 165.45 97.4693 165.003 97.3332C164.557 97.197 164.18 96.9994 163.87 96.7453C163.56 96.4912 163.325 96.1756 163.16 95.8035C162.997 95.4304 162.923 95.0119 162.942 94.5471H164.349C164.339 94.8103 164.394 95.0422 164.511 95.2418C164.629 95.4425 164.789 95.6119 164.991 95.748C165.19 95.8862 165.421 95.988 165.68 96.0626C165.94 96.1352 166.21 96.1705 166.493 96.1705C166.749 96.1705 167.005 96.1443 167.263 96.0889C167.524 96.0344 167.753 95.9497 167.955 95.8358C168.155 95.7238 168.318 95.5786 168.446 95.4062C168.574 95.2338 168.638 95.0281 168.638 94.7931C168.638 94.3182 168.442 93.9572 168.051 93.7071C167.657 93.4571 167.148 93.332 166.521 93.332C165.974 93.332 165.477 93.2544 165.031 93.0991C164.586 92.9458 164.201 92.724 163.876 92.4376C163.553 92.1512 163.305 91.7993 163.134 91.3859C162.961 90.9725 162.873 90.5006 162.873 89.9742C162.873 89.4075 162.978 88.9154 163.187 88.4919C163.397 88.0684 163.673 87.7145 164.014 87.4332C164.355 87.1528 164.745 86.9401 165.182 86.7979C165.62 86.6567 166.064 86.5862 166.52 86.5862C166.657 86.5862 166.805 86.5952 166.97 86.6134C167.133 86.6325 167.296 86.6598 167.46 86.6961C167.625 86.7313 167.78 86.7788 167.933 86.8393C168.081 86.8998 168.216 86.9683 168.334 87.051L169.073 86.1495Z" fill="white"/>
<path d="M172.978 86.7908L173.075 87.6792C173.321 87.2507 173.621 86.9703 173.977 86.8393C174.332 86.7072 174.692 86.6416 175.054 86.6416C175.382 86.6416 175.694 86.694 175.99 86.7979C176.286 86.9028 176.529 87.0429 176.721 87.2144L176.078 88.4435C175.905 88.3074 175.73 88.2066 175.553 88.136C175.375 88.0684 175.154 88.0331 174.891 88.0331C174.645 88.0331 174.412 88.0715 174.196 88.1491C173.977 88.2267 173.786 88.3407 173.622 88.4899C173.459 88.6412 173.327 88.8328 173.225 89.0637C173.124 89.2966 173.076 89.5668 173.076 89.8754V93.5226H171.669V86.7898H172.978V86.7908Z" fill="white"/>
<path d="M180.531 87.9647C180.213 87.9647 179.923 88.0262 179.67 88.1441C179.416 88.2611 179.198 88.4214 179.021 88.6272C178.843 88.8308 178.706 89.0648 178.611 89.3269C178.517 89.5911 178.468 89.8715 178.468 90.1719C178.468 90.4704 178.517 90.7528 178.611 91.0159C178.707 91.2781 178.843 91.51 179.021 91.7097C179.198 91.9093 179.416 92.0666 179.67 92.1806C179.924 92.2945 180.213 92.35 180.531 92.35C180.858 92.35 181.148 92.2935 181.404 92.1806C181.659 92.0677 181.874 91.9093 182.052 91.7097C182.23 91.511 182.366 91.2781 182.462 91.0159C182.558 90.7528 182.605 90.4704 182.605 90.1719C182.605 89.8715 182.556 89.5911 182.456 89.3269C182.355 89.0638 182.214 88.8308 182.034 88.6272C181.849 88.4225 181.633 88.2621 181.379 88.1441C181.122 88.0252 180.838 87.9647 180.531 87.9647ZM180.531 86.6538C181.049 86.6538 181.521 86.7456 181.95 86.9271C182.377 87.1096 182.747 87.3576 183.056 87.6702C183.366 87.9858 183.606 88.3569 183.773 88.7834C183.94 89.212 184.025 89.6718 184.025 90.1639C184.025 90.664 183.944 91.1269 183.781 91.5494C183.617 91.9729 183.382 92.3409 183.076 92.6555C182.771 92.9691 182.404 93.2152 181.971 93.3936C181.538 93.5701 181.059 93.6588 180.531 93.6588C180.002 93.6588 179.525 93.5701 179.096 93.3936C178.668 93.2141 178.304 92.9681 178.003 92.6555C177.703 92.3409 177.473 91.9729 177.308 91.5494C177.144 91.1269 177.063 90.664 177.063 90.1639C177.063 89.6718 177.144 89.212 177.308 88.7834C177.473 88.3569 177.707 87.9858 178.01 87.6702C178.316 87.3566 178.682 87.1086 179.111 86.9271C179.536 86.7456 180.011 86.6538 180.531 86.6538Z" fill="white"/>
<path d="M186.811 86.7908V90.3856C186.811 90.9584 186.966 91.4232 187.28 91.7842C187.596 92.1411 188.048 92.3206 188.64 92.3206C188.914 92.3206 189.166 92.2692 189.399 92.1643C189.63 92.0595 189.829 91.9143 189.992 91.7287C190.156 91.5412 190.284 91.3264 190.375 91.0814C190.465 90.8353 190.511 90.5732 190.511 90.2908V86.7898H191.918V93.5357H190.648L190.566 92.5384C190.239 92.9216 189.888 93.1979 189.516 93.3713C189.142 93.5448 188.718 93.6315 188.244 93.6315C187.836 93.6315 187.457 93.5579 187.106 93.4117C186.754 93.2665 186.454 93.0567 186.203 92.7845C185.953 92.5112 185.756 92.1754 185.615 91.7731C185.474 91.3738 185.405 90.918 185.405 90.4078V86.7888H186.811V86.7908Z" fill="white"/>
<path d="M197.476 92.3065C197.785 92.3065 198.069 92.2541 198.328 92.1492C198.588 92.0444 198.813 91.8961 199.005 91.7066C199.195 91.515 199.343 91.2911 199.447 91.031C199.552 90.7718 199.605 90.4834 199.605 90.1638C199.605 89.5275 199.412 89.0102 199.026 88.615C198.637 88.2177 198.121 88.02 197.476 88.02C197.148 88.02 196.854 88.0745 196.593 88.1834C196.333 88.2923 196.114 88.4466 195.932 88.6422C195.748 88.8378 195.609 89.0647 195.51 89.3248C195.41 89.583 195.359 89.8633 195.359 90.1638C195.359 90.4643 195.411 90.7446 195.516 91.0037C195.62 91.2639 195.766 91.4908 195.952 91.6864C196.141 91.882 196.362 92.0353 196.622 92.1432C196.881 92.2521 197.165 92.3065 197.476 92.3065ZM193.83 96.6505V86.7909H195.154L195.235 87.8829C195.498 87.4735 195.846 87.167 196.279 86.9613C196.711 86.7576 197.156 86.6547 197.612 86.6547C198.112 86.6547 198.572 86.7435 198.989 86.9219C199.407 87.0984 199.768 87.3424 200.068 87.652C200.37 87.9616 200.6 88.3316 200.764 88.7582C200.927 89.1867 201.01 89.6546 201.01 90.1648C201.01 90.675 200.93 91.1439 200.771 91.5715C200.612 92 200.386 92.3711 200.095 92.6847C199.804 92.9993 199.445 93.2423 199.024 93.4147C198.598 93.5882 198.128 93.6759 197.611 93.6759C197.4 93.6759 197.182 93.6547 196.96 93.6134C196.737 93.571 196.519 93.5085 196.305 93.4228C196.091 93.3371 195.892 93.2201 195.703 93.0729C195.517 92.9277 195.36 92.7522 195.233 92.5415V96.6525H193.83V96.6505Z" fill="white"/>
<path d="M111.993 37.8364H119.203C119.127 37.9705 119.074 38.0703 119.015 38.1661C117.861 40.0104 116.709 41.8537 115.558 43.701C115.453 43.8694 115.362 43.9803 115.127 43.9803C110.479 43.9712 105.832 43.9732 101.185 43.9732C101.127 43.9732 101.069 43.9672 100.936 43.9601C107.206 33.9078 113.451 23.8929 119.724 13.8366C125.978 23.8879 132.206 33.8968 138.461 43.952C138.31 43.9611 138.2 43.9732 138.091 43.9732C135.927 43.9742 133.762 43.9672 131.598 43.9823C131.319 43.9843 131.184 43.8825 131.046 43.6626C127.358 37.7194 123.663 31.7802 119.969 25.841C119.894 25.7221 119.817 25.6051 119.721 25.4548C117.148 29.575 114.594 33.6699 111.993 37.8364Z" fill="white"/>
<path d="M166.167 43.9822C163.68 39.9962 161.191 36.0102 158.687 31.996C159.169 31.996 159.556 32.0141 159.942 31.9919C160.576 31.9536 161.214 31.9365 161.836 31.8286C166.954 30.9442 170.319 25.6585 168.966 20.647C167.88 16.6196 164.292 13.895 160.034 13.89C152.976 13.8819 145.917 13.888 138.857 13.888C138.747 13.888 138.634 13.8991 138.463 13.9082C140.498 17.1702 142.506 20.3868 144.512 23.6045C144.543 23.5934 144.574 23.5823 144.606 23.5722V19.9764H145.066C149.984 19.9764 154.902 19.9764 159.82 19.9764C159.962 19.9764 160.102 19.9744 160.243 19.9814C161.483 20.046 162.553 20.8648 162.929 22.0355C163.303 23.2021 162.912 24.4716 161.942 25.2319C161.339 25.7038 160.649 25.8551 159.894 25.8541C152.906 25.846 145.917 25.8501 138.93 25.8501H138.462V43.95H144.592V31.996H145.033C147.022 31.996 149.009 32.003 150.999 31.9879C151.308 31.9859 151.475 32.0837 151.639 32.3459C154.063 36.226 156.491 40.1041 158.919 43.9822H166.167Z" fill="white"/>
<path d="M201.251 32.6302C200.172 28.5948 196.62 25.8773 192.374 25.8521C190.385 25.84 188.397 25.8501 186.409 25.8491C184.221 25.8481 182.031 25.8763 179.845 25.835C177.807 25.7956 176.477 23.7396 177.215 21.8439C177.666 20.6803 178.746 19.9775 180.103 19.9764C185.855 19.9754 191.608 19.9744 197.361 19.9815C197.615 19.9825 197.759 19.9119 197.894 19.6921C199.03 17.8519 200.183 16.0217 201.327 14.1865C201.391 14.0846 201.444 13.9768 201.525 13.8326H201.035C194.117 13.8326 187.197 13.8315 180.281 13.8346C179.882 13.8346 179.481 13.8527 179.083 13.887C173.543 14.363 169.707 19.8766 171.171 25.2562C172.271 29.3007 175.804 31.9819 180.069 31.993C184.082 32.0031 188.093 31.995 192.105 31.997C192.34 31.997 192.576 32.0061 192.81 32.0303C194.652 32.2269 195.847 34.1186 195.238 35.8741C194.8 37.1386 193.696 37.8777 192.231 37.8777C185.278 37.8787 178.325 37.8787 171.37 37.8787H170.876V43.9823H175.245C175.279 43.9803 175.298 43.9641 175.333 43.9651C180.935 43.9772 186.534 43.9772 192.134 43.9671C192.731 43.9661 193.333 43.9208 193.924 43.831C199.203 43.0294 202.628 37.7839 201.251 32.6302Z" fill="white"/>
<path d="M101.571 60.972C101.675 60.4053 101.729 59.8245 101.892 59.2769C102.685 56.631 104.335 54.7807 107.049 54.0577C109.798 53.3246 112.631 54.4429 114.321 56.8246C114.475 57.0414 114.619 57.2663 114.781 57.5042C115.348 56.5151 116.066 55.6872 116.992 55.0529C120.168 52.8729 124.352 53.7088 126.553 56.9618C127.419 58.2424 127.897 59.6631 127.91 61.1999C127.94 65.0044 127.923 68.8089 127.924 72.6134C127.924 72.6336 127.916 72.6537 127.908 72.7011H123.768V72.2978C123.768 68.7514 123.771 65.205 123.767 61.6577C123.765 60.128 123.127 58.9603 121.718 58.3059C119.513 57.2814 116.927 58.8686 116.855 61.2926C116.812 62.7457 116.839 64.2017 116.838 65.6537C116.837 67.8812 116.838 70.1086 116.838 72.3351V72.7112H112.671V72.3008C112.671 68.7534 112.665 65.2081 112.674 61.6597C112.677 60.3357 112.194 59.2588 111.064 58.5418C109.925 57.8199 108.718 57.7926 107.541 58.437C106.299 59.1186 105.742 60.2278 105.741 61.6314C105.74 65.1869 105.741 68.7454 105.741 72.3018V72.7273H101.571V60.972Z" fill="white"/>
<path d="M180.584 61.7787C180.071 59.8669 178.151 57.8774 175.471 58.0034C173.429 58.0982 171.202 59.9254 170.921 61.7787H180.584ZM184.945 70.2136C184.448 70.7278 183.775 71.232 183.052 71.6747C178.955 74.1925 173.485 73.8043 169.825 70.6895C167.97 69.1104 166.78 67.1179 166.505 64.6636C165.955 59.762 169.004 55.3747 173.353 54.1626C177.074 53.1261 181.069 54.6103 183.302 57.8915C184.837 60.1462 185.315 62.6348 184.909 65.3463H171.02C170.996 65.3715 170.969 65.3977 170.945 65.4239C171.183 65.8212 171.388 66.2437 171.67 66.6107C172.818 68.1102 174.379 68.8997 176.228 69.1054C178.191 69.3252 179.997 68.8916 181.572 67.6493C181.741 67.5152 181.896 67.366 182.073 67.2107C183.025 68.207 183.976 69.2022 184.945 70.2136Z" fill="white"/>
<path d="M134.343 63.5756C134.339 66.6662 136.83 69.1578 139.924 69.1568C143 69.1568 145.489 66.6793 145.504 63.6008C145.519 60.5223 143.017 58.0054 139.934 57.9994C136.844 57.9953 134.346 60.486 134.343 63.5756ZM149.646 72.7163H145.505V70.1631C145.091 70.5281 144.621 70.9587 144.135 71.3661C140.772 74.1743 136.121 73.9374 133.033 70.7984C129.648 67.3599 128.967 61.217 132.593 57.1826C135.195 54.2866 138.496 53.2087 142.275 54.1515C146.063 55.0983 148.442 57.6041 149.4 61.4005C149.572 62.0822 149.639 62.8062 149.646 63.511C149.673 66.4998 149.659 69.4895 149.659 72.4793C149.658 72.5509 149.653 72.6215 149.646 72.7163Z" fill="white"/>
<path d="M197.682 59.0632C196.702 58.4582 195.656 58.1406 194.547 58.0327C193.822 57.9611 193.103 57.9802 192.413 58.2434C191.729 58.5046 191.471 58.9674 191.609 59.6813C191.672 60.0111 191.914 60.2107 192.206 60.2914C192.889 60.4799 193.578 60.6514 194.274 60.7794C195.6 61.0234 196.942 61.1898 198.195 61.7343C201.222 63.0502 202.435 66.6248 200.875 69.5501C199.769 71.6253 197.995 72.7415 195.755 73.1408C192.437 73.7337 189.515 72.8413 187.007 70.5947C186.985 70.5735 186.969 70.5483 186.928 70.4939C187.878 69.5037 188.831 68.5105 189.731 67.5727C190.375 67.9609 190.947 68.3975 191.59 68.6748C192.959 69.2647 194.384 69.3746 195.802 68.8241C196.54 68.5367 197.158 68.0678 197.309 67.2359C197.52 66.0813 197.195 65.7143 196.338 65.4874C195.305 65.2142 194.249 65.0236 193.202 64.8098C192.204 64.6061 191.203 64.4216 190.271 63.9769C186.558 62.2083 186.667 57.227 189.466 55.174C190.705 54.2655 192.1 53.8934 193.604 53.8551C195.768 53.7996 197.788 54.3109 199.658 55.4049C199.782 55.4775 199.899 55.5602 200.056 55.661C199.263 56.7954 198.484 57.9147 197.682 59.0632Z" fill="white"/>
<path d="M155.659 58.5933H151.721V54.4389H155.659V54.085C155.659 52.8992 155.661 51.7133 155.657 50.5275C155.657 50.3763 155.669 50.2664 155.837 50.1837C157.118 49.5474 158.394 48.899 159.672 48.2537C159.698 48.2406 159.73 48.2375 159.804 48.2164V54.4187H164.158V58.5903H159.835C159.827 58.7234 159.818 58.8152 159.818 58.9059C159.817 60.9055 159.807 62.907 159.82 64.9066C159.832 66.9536 161.089 68.574 163.016 69.0449C163.264 69.1074 163.526 69.1074 163.779 69.1568C163.854 69.1719 163.972 69.2617 163.973 69.3192C163.984 70.6371 163.981 71.954 163.981 73.3586C163.381 73.284 162.808 73.2558 162.253 73.1378C158.422 72.318 155.709 69.0025 155.664 65.0821C155.642 63.0492 155.66 61.0194 155.659 58.9876V58.5933Z" fill="white"/>
<path d="M37.3584 3.88921L33.0598 0L0 29.9127V73.3586H5.65584V32.4215L37.3584 3.88921Z" fill="white"/>
<path d="M45.8882 19.2343L60.4639 32.4225V73.3586H66.1197V29.9137L50.1031 15.4207L45.8882 19.2343Z" fill="white"/>
<path d="M83.2454 73.3576H77.5895V32.4225L50.1855 7.62818L22.7816 32.4225V67.7027H51.5246V73.3576H17.1257V29.9138L50.1855 0L83.2454 29.9138V73.3576Z" fill="white"/>
</svg>
